%YAML 1.1
%TAG !u! tag:unity3d.com,2011:
--- !u!1 &1193063156239688
GameObject:
  m_ObjectHideFlags: 0
  m_CorrespondingSourceObject: {fileID: 0}
  m_PrefabInstance: {fileID: 0}
  m_PrefabAsset: {fileID: 0}
  serializedVersion: 6
  m_Component:
  - component: {fileID: 4050235663507654}
  - component: {fileID: 114121827862505544}
  - component: {fileID: 446459909}
  - component: {fileID: 446459908}
  m_Layer: 0
  m_Name: Leap Rig Moded
  m_TagString: Untagged
  m_Icon: {fileID: 0}
  m_NavMeshLayer: 0
  m_StaticEditorFlags: 0
  m_IsActive: 1
--- !u!4 &4050235663507654
Transform:
  m_ObjectHideFlags: 0
  m_CorrespondingSourceObject: {fileID: 0}
  m_PrefabInstance: {fileID: 0}
  m_PrefabAsset: {fileID: 0}
  m_GameObject: {fileID: 1193063156239688}
  m_LocalRotation: {x: 0, y: 0, z: 0, w: 1}
  m_LocalPosition: {x: 0, y: 0, z: 0}
  m_LocalScale: {x: 1, y: 1, z: 1}
  m_Children:
  - {fileID: 7973657747034831429}
  m_Father: {fileID: 0}
  m_RootOrder: 0
  m_LocalEulerAnglesHint: {x: 0, y: 0, z: 0}
--- !u!114 &114121827862505544
MonoBehaviour:
  m_ObjectHideFlags: 0
  m_CorrespondingSourceObject: {fileID: 0}
  m_PrefabInstance: {fileID: 0}
  m_PrefabAsset: {fileID: 0}
  m_GameObject: {fileID: 1193063156239688}
  m_Enabled: 1
  m_EditorHideFlags: 0
  m_Script: {fileID: 11500000, guid: fb8f8839ee256bb458e1657c1ee40572, type: 3}
  m_Name: 
  m_EditorClassIdentifier: 
  _roomScaleHeightOffset: 1.6
  recenterOnUserPresence: 1
  recenterOnStart: 1
  recenterOnKey: 0
  recenterKey: 114
  enableRuntimeAdjustment: 1
  stepUpKey: 273
  stepDownKey: 274
  stepSize: 0.1
--- !u!54 &446459909
Rigidbody:
  m_ObjectHideFlags: 0
  m_CorrespondingSourceObject: {fileID: 0}
  m_PrefabInstance: {fileID: 0}
  m_PrefabAsset: {fileID: 0}
  m_GameObject: {fileID: 1193063156239688}
  serializedVersion: 2
  m_Mass: 1
  m_Drag: 3.74
  m_AngularDrag: 0
  m_UseGravity: 0
  m_IsKinematic: 0
  m_Interpolate: 0
  m_Constraints: 0
  m_CollisionDetection: 0
--- !u!114 &446459908
MonoBehaviour:
  m_ObjectHideFlags: 0
  m_CorrespondingSourceObject: {fileID: 0}
  m_PrefabInstance: {fileID: 0}
  m_PrefabAsset: {fileID: 0}
  m_GameObject: {fileID: 1193063156239688}
  m_Enabled: 1
  m_EditorHideFlags: 0
  m_Script: {fileID: 11500000, guid: 582f0eba8e4ef1246b51cbff0d0d7439, type: 3}
  m_Name: 
  m_EditorClassIdentifier: 
  playerSpeed: 500
--- !u!1 &1339460489974520
GameObject:
  m_ObjectHideFlags: 0
  m_CorrespondingSourceObject: {fileID: 0}
  m_PrefabInstance: {fileID: 0}
  m_PrefabAsset: {fileID: 0}
  serializedVersion: 6
  m_Component:
  - component: {fileID: 4057968051431532}
  - component: {fileID: 81344774275610192}
  - component: {fileID: 20862101930491778}
  - component: {fileID: 114292754717913548}
  m_Layer: 0
  m_Name: Main Camera
  m_TagString: MainCamera
  m_Icon: {fileID: 0}
  m_NavMeshLayer: 0
  m_StaticEditorFlags: 0
  m_IsActive: 1
--- !u!4 &4057968051431532
Transform:
  m_ObjectHideFlags: 0
  m_CorrespondingSourceObject: {fileID: 0}
  m_PrefabInstance: {fileID: 0}
  m_PrefabAsset: {fileID: 0}
  m_GameObject: {fileID: 1339460489974520}
  m_LocalRotation: {x: -0, y: -0, z: -0, w: 1}
  m_LocalPosition: {x: 0, y: 0, z: 0}
  m_LocalScale: {x: 1, y: 1, z: 1}
  m_Children: []
  m_Father: {fileID: 7973657747034831429}
  m_RootOrder: 0
  m_LocalEulerAnglesHint: {x: 0, y: 0, z: 0}
--- !u!81 &81344774275610192
AudioListener:
  m_ObjectHideFlags: 0
  m_CorrespondingSourceObject: {fileID: 0}
  m_PrefabInstance: {fileID: 0}
  m_PrefabAsset: {fileID: 0}
  m_GameObject: {fileID: 1339460489974520}
  m_Enabled: 1
--- !u!20 &20862101930491778
Camera:
  m_ObjectHideFlags: 0
  m_CorrespondingSourceObject: {fileID: 0}
  m_PrefabInstance: {fileID: 0}
  m_PrefabAsset: {fileID: 0}
  m_GameObject: {fileID: 1339460489974520}
  m_Enabled: 1
  serializedVersion: 2
  m_ClearFlags: 1
  m_BackGroundColor: {r: 0.32352942, g: 0.32352942, b: 0.32352942, a: 0.019607844}
  m_projectionMatrixMode: 1
  m_SensorSize: {x: 36, y: 24}
  m_LensShift: {x: 0, y: 0}
  m_GateFitMode: 2
  m_FocalLength: 50
  m_NormalizedViewPortRect:
    serializedVersion: 2
    x: 0
    y: 0
    width: 1
    height: 1
  near clip plane: 0.01
  far clip plane: 100
  field of view: 106.092
  orthographic: 0
  orthographic size: 5
  m_Depth: 0
  m_CullingMask:
    serializedVersion: 2
    m_Bits: 4294967295
  m_RenderingPath: -1
  m_TargetTexture: {fileID: 0}
  m_TargetDisplay: 0
  m_TargetEye: 3
  m_HDR: 0
  m_AllowMSAA: 1
  m_AllowDynamicResolution: 0
  m_ForceIntoRT: 0
  m_OcclusionCulling: 1
  m_StereoConvergence: 10
  m_StereoSeparation: 0.022
--- !u!114 &114292754717913548
MonoBehaviour:
  m_ObjectHideFlags: 0
  m_CorrespondingSourceObject: {fileID: 0}
  m_PrefabInstance: {fileID: 0}
  m_PrefabAsset: {fileID: 0}
  m_GameObject: {fileID: 1339460489974520}
  m_Enabled: 1
  m_EditorHideFlags: 0
  m_Script: {fileID: 11500000, guid: abb0e8dd6c809854f8fea5e0976884f8, type: 3}
  m_Name: 
  m_EditorClassIdentifier: 
  editTimePose: 1
  _frameOptimization: 0
  _physicsExtrapolation: 1
  _physicsExtrapolationTime: 0.011111111
  _workerThreadProfiling: 0
  _deviceOffsetMode: 0
  _deviceOffsetYAxis: 0
  _deviceOffsetZAxis: 0.12
  _deviceTiltXAxis: 5
  _deviceOrigin: {fileID: 0}
  _preCullCamera: {fileID: 0}
  _temporalWarpingMode: 0
  _customWarpAdjustment: 17
  _updateHandInPrecull: 0
--- !u!1 &1671192356237494
GameObject:
  m_ObjectHideFlags: 0
  m_CorrespondingSourceObject: {fileID: 0}
  m_PrefabInstance: {fileID: 0}
  m_PrefabAsset: {fileID: 0}
  serializedVersion: 6
  m_Component:
  - component: {fileID: 4554978340012998}
  - component: {fileID: 114473456793702560}
  m_Layer: 0
  m_Name: Hand Models
  m_TagString: Untagged
  m_Icon: {fileID: 0}
  m_NavMeshLayer: 0
  m_StaticEditorFlags: 0
  m_IsActive: 1
--- !u!4 &4554978340012998
Transform:
  m_ObjectHideFlags: 0
  m_CorrespondingSourceObject: {fileID: 0}
  m_PrefabInstance: {fileID: 0}
  m_PrefabAsset: {fileID: 0}
  m_GameObject: {fileID: 1671192356237494}
  m_LocalRotation: {x: -0, y: -0, z: -0, w: 1}
  m_LocalPosition: {x: 0, y: 0, z: 0}
  m_LocalScale: {x: 1, y: 1, z: 1}
  m_Children:
  - {fileID: 5835991349093692082}
  - {fileID: 6261350523962661155}
  m_Father: {fileID: 7973657747034831429}
  m_RootOrder: 1
  m_LocalEulerAnglesHint: {x: 0, y: 0, z: 0}
--- !u!114 &114473456793702560
MonoBehaviour:
  m_ObjectHideFlags: 0
  m_CorrespondingSourceObject: {fileID: 0}
  m_PrefabInstance: {fileID: 0}
  m_PrefabAsset: {fileID: 0}
  m_GameObject: {fileID: 1671192356237494}
  m_Enabled: 1
  m_EditorHideFlags: 0
  m_Script: {fileID: 11500000, guid: c592f16851a620743868a31232613370, type: 3}
  m_Name: 
  m_EditorClassIdentifier: 
  _leapProvider: {fileID: 114292754717913548}
  ModelPool:
  - GroupName: Capsule Hands
    _handModelManager: {fileID: 0}
    LeftModel: {fileID: 5869653838652478396}
    IsLeftToBeSpawned: 1
    RightModel: {fileID: 6304641166273696177}
    IsRightToBeSpawned: 1
    IsEnabled: 1
    CanDuplicate: 0
--- !u!1 &1769850776643733050
GameObject:
  m_ObjectHideFlags: 0
  m_CorrespondingSourceObject: {fileID: 0}
  m_PrefabInstance: {fileID: 0}
  m_PrefabAsset: {fileID: 0}
  serializedVersion: 6
  m_Component:
  - component: {fileID: 7973657747034831429}
  - component: {fileID: 867428358}
  m_Layer: 0
  m_Name: Camera Helper
  m_TagString: Untagged
  m_Icon: {fileID: 0}
  m_NavMeshLayer: 0
  m_StaticEditorFlags: 0
  m_IsActive: 1
--- !u!4 &7973657747034831429
Transform:
  m_ObjectHideFlags: 0
  m_CorrespondingSourceObject: {fileID: 0}
  m_PrefabInstance: {fileID: 0}
  m_PrefabAsset: {fileID: 0}
  m_GameObject: {fileID: 1769850776643733050}
  m_LocalRotation: {x: -0, y: -0, z: -0, w: 1}
  m_LocalPosition: {x: 0, y: 0, z: 0}
  m_LocalScale: {x: 1, y: 1, z: 1}
  m_Children:
  - {fileID: 4057968051431532}
  - {fileID: 4554978340012998}
  m_Father: {fileID: 4050235663507654}
  m_RootOrder: 0
  m_LocalEulerAnglesHint: {x: 0, y: 0, z: 0}
--- !u!114 &867428358
MonoBehaviour:
  m_ObjectHideFlags: 0
  m_CorrespondingSourceObject: {fileID: 0}
  m_PrefabInstance: {fileID: 0}
  m_PrefabAsset: {fileID: 0}
  m_GameObject: {fileID: 1769850776643733050}
  m_Enabled: 1
  m_EditorHideFlags: 0
  m_Script: {fileID: 11500000, guid: e8a01b249aa3e964eaf297e7f1a1d5a1, type: 3}
  m_Name: 
  m_EditorClassIdentifier: 
  isGyroActive: 1
  parent: {fileID: 1193063156239688}
--- !u!1001 &5831519537802439482
PrefabInstance:
  m_ObjectHideFlags: 0
  serializedVersion: 2
  m_Modification:
    m_TransformParent: {fileID: 4554978340012998}
    m_Modifications:
    - target: {fileID: 1137685427885016, guid: 2aa010a1e75292e49a24f3f71bb9cddb, type: 3}
      propertyPath: m_Name
      value: LoPoly Rigged Hand Left
      objectReference: {fileID: 0}
    - target: {fileID: 4542260197562760, guid: 2aa010a1e75292e49a24f3f71bb9cddb, type: 3}
      propertyPath: m_LocalPosition.x
      value: 0
      objectReference: {fileID: 0}
    - target: {fileID: 4542260197562760, guid: 2aa010a1e75292e49a24f3f71bb9cddb, type: 3}
      propertyPath: m_LocalPosition.y
      value: 0
      objectReference: {fileID: 0}
    - target: {fileID: 4542260197562760, guid: 2aa010a1e75292e49a24f3f71bb9cddb, type: 3}
      propertyPath: m_LocalPosition.z
      value: 0
      objectReference: {fileID: 0}
    - target: {fileID: 4542260197562760, guid: 2aa010a1e75292e49a24f3f71bb9cddb, type: 3}
      propertyPath: m_LocalRotation.x
      value: -0
      objectReference: {fileID: 0}
    - target: {fileID: 4542260197562760, guid: 2aa010a1e75292e49a24f3f71bb9cddb, type: 3}
      propertyPath: m_LocalRotation.y
      value: -0
      objectReference: {fileID: 0}
    - target: {fileID: 4542260197562760, guid: 2aa010a1e75292e49a24f3f71bb9cddb, type: 3}
      propertyPath: m_LocalRotation.z
      value: -0
      objectReference: {fileID: 0}
    - target: {fileID: 4542260197562760, guid: 2aa010a1e75292e49a24f3f71bb9cddb, type: 3}
      propertyPath: m_LocalRotation.w
      value: 1
      objectReference: {fileID: 0}
    - target: {fileID: 4542260197562760, guid: 2aa010a1e75292e49a24f3f71bb9cddb, type: 3}
      propertyPath: m_RootOrder
      value: 0
      objectReference: {fileID: 0}
    - target: {fileID: 4542260197562760, guid: 2aa010a1e75292e49a24f3f71bb9cddb, type: 3}
      propertyPath: m_LocalEulerAnglesHint.x
      value: 0
      objectReference: {fileID: 0}
    - target: {fileID: 4542260197562760, guid: 2aa010a1e75292e49a24f3f71bb9cddb, type: 3}
      propertyPath: m_LocalEulerAnglesHint.y
      value: 0
      objectReference: {fileID: 0}
    - target: {fileID: 4542260197562760, guid: 2aa010a1e75292e49a24f3f71bb9cddb, type: 3}
      propertyPath: m_LocalEulerAnglesHint.z
      value: 0
      objectReference: {fileID: 0}
    - target: {fileID: 114362899867680234, guid: 2aa010a1e75292e49a24f3f71bb9cddb,
        type: 3}
      propertyPath: scaleLastFingerBone
      value: 1
      objectReference: {fileID: 0}
    - target: {fileID: 114704646470113718, guid: 2aa010a1e75292e49a24f3f71bb9cddb,
        type: 3}
      propertyPath: scaleLastFingerBone
      value: 1
      objectReference: {fileID: 0}
    - target: {fileID: 114775250117358390, guid: 2aa010a1e75292e49a24f3f71bb9cddb,
        type: 3}
      propertyPath: scaleLastFingerBone
      value: 1
      objectReference: {fileID: 0}
    - target: {fileID: 114058019603276306, guid: 2aa010a1e75292e49a24f3f71bb9cddb,
        type: 3}
      propertyPath: scaleLastFingerBone
      value: 1
      objectReference: {fileID: 0}
    - target: {fileID: 114351498389276332, guid: 2aa010a1e75292e49a24f3f71bb9cddb,
        type: 3}
      propertyPath: scaleLastFingerBone
      value: 1
      objectReference: {fileID: 0}
    - target: {fileID: 4531056800117064, guid: 2aa010a1e75292e49a24f3f71bb9cddb, type: 3}
      propertyPath: m_LocalRotation.x
      value: 0.14715013
      objectReference: {fileID: 0}
    - target: {fileID: 4531056800117064, guid: 2aa010a1e75292e49a24f3f71bb9cddb, type: 3}
      propertyPath: m_LocalRotation.y
      value: -0.029150367
      objectReference: {fileID: 0}
    - target: {fileID: 4531056800117064, guid: 2aa010a1e75292e49a24f3f71bb9cddb, type: 3}
      propertyPath: m_LocalRotation.z
      value: 0.3154987
      objectReference: {fileID: 0}
    - target: {fileID: 4531056800117064, guid: 2aa010a1e75292e49a24f3f71bb9cddb, type: 3}
      propertyPath: m_LocalRotation.w
      value: 0.936994
      objectReference: {fileID: 0}
    - target: {fileID: 4531056800117064, guid: 2aa010a1e75292e49a24f3f71bb9cddb, type: 3}
      propertyPath: m_LocalPosition.x
      value: 0.19967404
      objectReference: {fileID: 0}
    - target: {fileID: 4531056800117064, guid: 2aa010a1e75292e49a24f3f71bb9cddb, type: 3}
      propertyPath: m_LocalPosition.y
      value: -0.3516451
      objectReference: {fileID: 0}
    - target: {fileID: 4531056800117064, guid: 2aa010a1e75292e49a24f3f71bb9cddb, type: 3}
      propertyPath: m_LocalPosition.z
      value: -0.207465
      objectReference: {fileID: 0}
    - target: {fileID: 4599822919676468, guid: 2aa010a1e75292e49a24f3f71bb9cddb, type: 3}
      propertyPath: m_LocalRotation.x
      value: 0.0062662796
      objectReference: {fileID: 0}
    - target: {fileID: 4599822919676468, guid: 2aa010a1e75292e49a24f3f71bb9cddb, type: 3}
      propertyPath: m_LocalRotation.y
      value: -0.084017105
      objectReference: {fileID: 0}
    - target: {fileID: 4599822919676468, guid: 2aa010a1e75292e49a24f3f71bb9cddb, type: 3}
      propertyPath: m_LocalRotation.z
      value: -0.0741117
      objectReference: {fileID: 0}
    - target: {fileID: 4599822919676468, guid: 2aa010a1e75292e49a24f3f71bb9cddb, type: 3}
      propertyPath: m_LocalRotation.w
      value: 0.9936847
      objectReference: {fileID: 0}
    - target: {fileID: 4599822919676468, guid: 2aa010a1e75292e49a24f3f71bb9cddb, type: 3}
      propertyPath: m_LocalPosition.x
      value: -0.006739334
      objectReference: {fileID: 0}
    - target: {fileID: 4599822919676468, guid: 2aa010a1e75292e49a24f3f71bb9cddb, type: 3}
      propertyPath: m_LocalPosition.y
      value: -0.008104935
      objectReference: {fileID: 0}
    - target: {fileID: 4599822919676468, guid: 2aa010a1e75292e49a24f3f71bb9cddb, type: 3}
      propertyPath: m_LocalPosition.z
      value: -0.018928435
      objectReference: {fileID: 0}
    - target: {fileID: 4515101297048264, guid: 2aa010a1e75292e49a24f3f71bb9cddb, type: 3}
      propertyPath: m_LocalRotation.x
      value: 4.6566118e-10
      objectReference: {fileID: 0}
    - target: {fileID: 4515101297048264, guid: 2aa010a1e75292e49a24f3f71bb9cddb, type: 3}
      propertyPath: m_LocalRotation.z
      value: 0.000000009313224
      objectReference: {fileID: 0}
    - target: {fileID: 4515101297048264, guid: 2aa010a1e75292e49a24f3f71bb9cddb, type: 3}
      propertyPath: m_LocalPosition.x
      value: -0.06812003
      objectReference: {fileID: 0}
    - target: {fileID: 4515101297048264, guid: 2aa010a1e75292e49a24f3f71bb9cddb, type: 3}
      propertyPath: m_LocalPosition.y
      value: -0.000000033789547
      objectReference: {fileID: 0}
    - target: {fileID: 4515101297048264, guid: 2aa010a1e75292e49a24f3f71bb9cddb, type: 3}
      propertyPath: m_LocalPosition.z
      value: 0.000000018364517
      objectReference: {fileID: 0}
    - target: {fileID: 4345602586814552, guid: 2aa010a1e75292e49a24f3f71bb9cddb, type: 3}
      propertyPath: m_LocalPosition.y
      value: -0.000000008717785
      objectReference: {fileID: 0}
    - target: {fileID: 4345602586814552, guid: 2aa010a1e75292e49a24f3f71bb9cddb, type: 3}
      propertyPath: m_LocalPosition.z
      value: -0.000000015745172
      objectReference: {fileID: 0}
    - target: {fileID: 4883225918227628, guid: 2aa010a1e75292e49a24f3f71bb9cddb, type: 3}
      propertyPath: m_LocalPosition.y
      value: 0.00000004069656
      objectReference: {fileID: 0}
    - target: {fileID: 4883225918227628, guid: 2aa010a1e75292e49a24f3f71bb9cddb, type: 3}
      propertyPath: m_LocalPosition.z
      value: 0.0000000019790605
      objectReference: {fileID: 0}
    - target: {fileID: 4883225918227628, guid: 2aa010a1e75292e49a24f3f71bb9cddb, type: 3}
      propertyPath: m_LocalScale.x
      value: 1.0000011
      objectReference: {fileID: 0}
    - target: {fileID: 4437985243979600, guid: 2aa010a1e75292e49a24f3f71bb9cddb, type: 3}
      propertyPath: m_LocalRotation.x
      value: -0.07399491
      objectReference: {fileID: 0}
    - target: {fileID: 4437985243979600, guid: 2aa010a1e75292e49a24f3f71bb9cddb, type: 3}
      propertyPath: m_LocalRotation.y
      value: -0.009242295
      objectReference: {fileID: 0}
    - target: {fileID: 4437985243979600, guid: 2aa010a1e75292e49a24f3f71bb9cddb, type: 3}
      propertyPath: m_LocalRotation.z
      value: -0.075277865
      objectReference: {fileID: 0}
    - target: {fileID: 4437985243979600, guid: 2aa010a1e75292e49a24f3f71bb9cddb, type: 3}
      propertyPath: m_LocalRotation.w
      value: 0.99437046
      objectReference: {fileID: 0}
    - target: {fileID: 4437985243979600, guid: 2aa010a1e75292e49a24f3f71bb9cddb, type: 3}
      propertyPath: m_LocalPosition.x
      value: -0.009395288
      objectReference: {fileID: 0}
    - target: {fileID: 4437985243979600, guid: 2aa010a1e75292e49a24f3f71bb9cddb, type: 3}
      propertyPath: m_LocalPosition.y
      value: -0.009582831
      objectReference: {fileID: 0}
    - target: {fileID: 4437985243979600, guid: 2aa010a1e75292e49a24f3f71bb9cddb, type: 3}
      propertyPath: m_LocalPosition.z
      value: -0.007939804
      objectReference: {fileID: 0}
    - target: {fileID: 4464229214925108, guid: 2aa010a1e75292e49a24f3f71bb9cddb, type: 3}
      propertyPath: m_LocalRotation.y
      value: 9.3132246e-10
      objectReference: {fileID: 0}
    - target: {fileID: 4464229214925108, guid: 2aa010a1e75292e49a24f3f71bb9cddb, type: 3}
      propertyPath: m_LocalRotation.z
      value: -0.0000000015716066
      objectReference: {fileID: 0}
    - target: {fileID: 4464229214925108, guid: 2aa010a1e75292e49a24f3f71bb9cddb, type: 3}
      propertyPath: m_LocalPosition.x
      value: -0.064600006
      objectReference: {fileID: 0}
    - target: {fileID: 4464229214925108, guid: 2aa010a1e75292e49a24f3f71bb9cddb, type: 3}
      propertyPath: m_LocalPosition.y
      value: 0.00000005363836
      objectReference: {fileID: 0}
    - target: {fileID: 4464229214925108, guid: 2aa010a1e75292e49a24f3f71bb9cddb, type: 3}
      propertyPath: m_LocalPosition.z
      value: 0.000000017229468
      objectReference: {fileID: 0}
    - target: {fileID: 4608501519327712, guid: 2aa010a1e75292e49a24f3f71bb9cddb, type: 3}
      propertyPath: m_LocalPosition.x
      value: -0.044630006
      objectReference: {fileID: 0}
    - target: {fileID: 4608501519327712, guid: 2aa010a1e75292e49a24f3f71bb9cddb, type: 3}
      propertyPath: m_LocalPosition.y
      value: -0.0000000070087856
      objectReference: {fileID: 0}
    - target: {fileID: 4608501519327712, guid: 2aa010a1e75292e49a24f3f71bb9cddb, type: 3}
      propertyPath: m_LocalPosition.z
      value: -0.0000000082322025
      objectReference: {fileID: 0}
    - target: {fileID: 4411577448127944, guid: 2aa010a1e75292e49a24f3f71bb9cddb, type: 3}
      propertyPath: m_LocalPosition.x
      value: -0.026330024
      objectReference: {fileID: 0}
    - target: {fileID: 4411577448127944, guid: 2aa010a1e75292e49a24f3f71bb9cddb, type: 3}
      propertyPath: m_LocalPosition.y
      value: -0.000000002876729
      objectReference: {fileID: 0}
    - target: {fileID: 4411577448127944, guid: 2aa010a1e75292e49a24f3f71bb9cddb, type: 3}
      propertyPath: m_LocalPosition.z
      value: -4.9043436e-11
      objectReference: {fileID: 0}
    - target: {fileID: 4411577448127944, guid: 2aa010a1e75292e49a24f3f71bb9cddb, type: 3}
      propertyPath: m_LocalScale.x
      value: 1.0000006
      objectReference: {fileID: 0}
    - target: {fileID: 4572308722735894, guid: 2aa010a1e75292e49a24f3f71bb9cddb, type: 3}
      propertyPath: m_LocalRotation.x
      value: -0.17725915
      objectReference: {fileID: 0}
    - target: {fileID: 4572308722735894, guid: 2aa010a1e75292e49a24f3f71bb9cddb, type: 3}
      propertyPath: m_LocalRotation.y
      value: 0.1384381
      objectReference: {fileID: 0}
    - target: {fileID: 4572308722735894, guid: 2aa010a1e75292e49a24f3f71bb9cddb, type: 3}
      propertyPath: m_LocalRotation.z
      value: -0.029145608
      objectReference: {fileID: 0}
    - target: {fileID: 4572308722735894, guid: 2aa010a1e75292e49a24f3f71bb9cddb, type: 3}
      propertyPath: m_LocalRotation.w
      value: 0.9739428
      objectReference: {fileID: 0}
    - target: {fileID: 4572308722735894, guid: 2aa010a1e75292e49a24f3f71bb9cddb, type: 3}
      propertyPath: m_LocalPosition.x
      value: -0.008187873
      objectReference: {fileID: 0}
    - target: {fileID: 4572308722735894, guid: 2aa010a1e75292e49a24f3f71bb9cddb, type: 3}
      propertyPath: m_LocalPosition.y
      value: -0.0016831183
      objectReference: {fileID: 0}
    - target: {fileID: 4572308722735894, guid: 2aa010a1e75292e49a24f3f71bb9cddb, type: 3}
      propertyPath: m_LocalPosition.z
      value: 0.01435598
      objectReference: {fileID: 0}
    - target: {fileID: 4532795199889198, guid: 2aa010a1e75292e49a24f3f71bb9cddb, type: 3}
      propertyPath: m_LocalRotation.x
      value: -0.000000014901158
      objectReference: {fileID: 0}
    - target: {fileID: 4532795199889198, guid: 2aa010a1e75292e49a24f3f71bb9cddb, type: 3}
      propertyPath: m_LocalRotation.z
      value: 0.0000000018626447
      objectReference: {fileID: 0}
    - target: {fileID: 4532795199889198, guid: 2aa010a1e75292e49a24f3f71bb9cddb, type: 3}
      propertyPath: m_LocalPosition.x
      value: -0.05369002
      objectReference: {fileID: 0}
    - target: {fileID: 4532795199889198, guid: 2aa010a1e75292e49a24f3f71bb9cddb, type: 3}
      propertyPath: m_LocalPosition.y
      value: -0.00000003958121
      objectReference: {fileID: 0}
    - target: {fileID: 4532795199889198, guid: 2aa010a1e75292e49a24f3f71bb9cddb, type: 3}
      propertyPath: m_LocalPosition.z
      value: 0.000000005820766
      objectReference: {fileID: 0}
    - target: {fileID: 4059836699814008, guid: 2aa010a1e75292e49a24f3f71bb9cddb, type: 3}
      propertyPath: m_LocalPosition.y
      value: -0.000000011519565
      objectReference: {fileID: 0}
    - target: {fileID: 4059836699814008, guid: 2aa010a1e75292e49a24f3f71bb9cddb, type: 3}
      propertyPath: m_LocalPosition.z
      value: -0.000000020954758
      objectReference: {fileID: 0}
    - target: {fileID: 4113658506791758, guid: 2aa010a1e75292e49a24f3f71bb9cddb, type: 3}
      propertyPath: m_LocalPosition.x
      value: -0.01811
      objectReference: {fileID: 0}
    - target: {fileID: 4113658506791758, guid: 2aa010a1e75292e49a24f3f71bb9cddb, type: 3}
      propertyPath: m_LocalPosition.y
      value: 0.000000007518045
      objectReference: {fileID: 0}
    - target: {fileID: 4113658506791758, guid: 2aa010a1e75292e49a24f3f71bb9cddb, type: 3}
      propertyPath: m_LocalPosition.z
      value: 0.0000000018626451
      objectReference: {fileID: 0}
    - target: {fileID: 4113658506791758, guid: 2aa010a1e75292e49a24f3f71bb9cddb, type: 3}
      propertyPath: m_LocalScale.x
      value: 0.9999999
      objectReference: {fileID: 0}
    - target: {fileID: 4830608005988508, guid: 2aa010a1e75292e49a24f3f71bb9cddb, type: 3}
      propertyPath: m_LocalRotation.x
      value: -0.1048907
      objectReference: {fileID: 0}
    - target: {fileID: 4830608005988508, guid: 2aa010a1e75292e49a24f3f71bb9cddb, type: 3}
      propertyPath: m_LocalRotation.y
      value: 0.06845518
      objectReference: {fileID: 0}
    - target: {fileID: 4830608005988508, guid: 2aa010a1e75292e49a24f3f71bb9cddb, type: 3}
      propertyPath: m_LocalRotation.z
      value: -0.06767918
      objectReference: {fileID: 0}
    - target: {fileID: 4830608005988508, guid: 2aa010a1e75292e49a24f3f71bb9cddb, type: 3}
      propertyPath: m_LocalRotation.w
      value: 0.9898138
      objectReference: {fileID: 0}
    - target: {fileID: 4830608005988508, guid: 2aa010a1e75292e49a24f3f71bb9cddb, type: 3}
      propertyPath: m_LocalPosition.x
      value: -0.010354034
      objectReference: {fileID: 0}
    - target: {fileID: 4830608005988508, guid: 2aa010a1e75292e49a24f3f71bb9cddb, type: 3}
      propertyPath: m_LocalPosition.y
      value: -0.008603733
      objectReference: {fileID: 0}
    - target: {fileID: 4830608005988508, guid: 2aa010a1e75292e49a24f3f71bb9cddb, type: 3}
      propertyPath: m_LocalPosition.z
      value: 0.0033526677
      objectReference: {fileID: 0}
    - target: {fileID: 4922532840737966, guid: 2aa010a1e75292e49a24f3f71bb9cddb, type: 3}
      propertyPath: m_LocalRotation.x
      value: -0.0000000074505797
      objectReference: {fileID: 0}
    - target: {fileID: 4922532840737966, guid: 2aa010a1e75292e49a24f3f71bb9cddb, type: 3}
      propertyPath: m_LocalRotation.z
      value: 0.0000000018626449
      objectReference: {fileID: 0}
    - target: {fileID: 4922532840737966, guid: 2aa010a1e75292e49a24f3f71bb9cddb, type: 3}
      propertyPath: m_LocalPosition.x
      value: -0.058000058
      objectReference: {fileID: 0}
    - target: {fileID: 4922532840737966, guid: 2aa010a1e75292e49a24f3f71bb9cddb, type: 3}
      propertyPath: m_LocalPosition.y
      value: -0.00000005029142
      objectReference: {fileID: 0}
    - target: {fileID: 4922532840737966, guid: 2aa010a1e75292e49a24f3f71bb9cddb, type: 3}
      propertyPath: m_LocalPosition.z
      value: -0.0000000048894435
      objectReference: {fileID: 0}
    - target: {fileID: 4035148026136388, guid: 2aa010a1e75292e49a24f3f71bb9cddb, type: 3}
      propertyPath: m_LocalPosition.x
      value: -0.04136999
      objectReference: {fileID: 0}
    - target: {fileID: 4035148026136388, guid: 2aa010a1e75292e49a24f3f71bb9cddb, type: 3}
      propertyPath: m_LocalPosition.y
      value: 0.000000029025115
      objectReference: {fileID: 0}
    - target: {fileID: 4035148026136388, guid: 2aa010a1e75292e49a24f3f71bb9cddb, type: 3}
      propertyPath: m_LocalPosition.z
      value: -0.0000000034924592
      objectReference: {fileID: 0}
    - target: {fileID: 4859271042775292, guid: 2aa010a1e75292e49a24f3f71bb9cddb, type: 3}
      propertyPath: m_LocalPosition.x
      value: -0.02565001
      objectReference: {fileID: 0}
    - target: {fileID: 4859271042775292, guid: 2aa010a1e75292e49a24f3f71bb9cddb, type: 3}
      propertyPath: m_LocalPosition.y
      value: -0.000000003862567
      objectReference: {fileID: 0}
    - target: {fileID: 4859271042775292, guid: 2aa010a1e75292e49a24f3f71bb9cddb, type: 3}
      propertyPath: m_LocalPosition.z
      value: 0.0000000069849193
      objectReference: {fileID: 0}
    - target: {fileID: 4859271042775292, guid: 2aa010a1e75292e49a24f3f71bb9cddb, type: 3}
      propertyPath: m_LocalScale.x
      value: 0.9999999
      objectReference: {fileID: 0}
    - target: {fileID: 4570656256943866, guid: 2aa010a1e75292e49a24f3f71bb9cddb, type: 3}
      propertyPath: m_LocalRotation.x
      value: 0.5351684
      objectReference: {fileID: 0}
    - target: {fileID: 4570656256943866, guid: 2aa010a1e75292e49a24f3f71bb9cddb, type: 3}
      propertyPath: m_LocalRotation.y
      value: -0.35755518
      objectReference: {fileID: 0}
    - target: {fileID: 4570656256943866, guid: 2aa010a1e75292e49a24f3f71bb9cddb, type: 3}
      propertyPath: m_LocalRotation.z
      value: -0.019904777
      objectReference: {fileID: 0}
    - target: {fileID: 4570656256943866, guid: 2aa010a1e75292e49a24f3f71bb9cddb, type: 3}
      propertyPath: m_LocalRotation.w
      value: 0.7650837
      objectReference: {fileID: 0}
    - target: {fileID: 4570656256943866, guid: 2aa010a1e75292e49a24f3f71bb9cddb, type: 3}
      propertyPath: m_LocalPosition.x
      value: 0.0031684954
      objectReference: {fileID: 0}
    - target: {fileID: 4570656256943866, guid: 2aa010a1e75292e49a24f3f71bb9cddb, type: 3}
      propertyPath: m_LocalPosition.y
      value: 0.00999999
      objectReference: {fileID: 0}
    - target: {fileID: 4570656256943866, guid: 2aa010a1e75292e49a24f3f71bb9cddb, type: 3}
      propertyPath: m_LocalPosition.z
      value: -0.026396338
      objectReference: {fileID: 0}
    - target: {fileID: 4314449913958468, guid: 2aa010a1e75292e49a24f3f71bb9cddb, type: 3}
      propertyPath: m_LocalRotation.x
      value: -0
      objectReference: {fileID: 0}
    - target: {fileID: 4314449913958468, guid: 2aa010a1e75292e49a24f3f71bb9cddb, type: 3}
      propertyPath: m_LocalPosition.x
      value: -0.046220034
      objectReference: {fileID: 0}
    - target: {fileID: 4314449913958468, guid: 2aa010a1e75292e49a24f3f71bb9cddb, type: 3}
      propertyPath: m_LocalPosition.y
      value: 0.000000026077032
      objectReference: {fileID: 0}
    - target: {fileID: 4314449913958468, guid: 2aa010a1e75292e49a24f3f71bb9cddb, type: 3}
      propertyPath: m_LocalPosition.z
      value: 0.0000000055879354
      objectReference: {fileID: 0}
    - target: {fileID: 4143700205523432, guid: 2aa010a1e75292e49a24f3f71bb9cddb, type: 3}
      propertyPath: m_LocalPosition.x
      value: -0.031569973
      objectReference: {fileID: 0}
    - target: {fileID: 4143700205523432, guid: 2aa010a1e75292e49a24f3f71bb9cddb, type: 3}
      propertyPath: m_LocalPosition.y
      value: -0.000000011175871
      objectReference: {fileID: 0}
    - target: {fileID: 4143700205523432, guid: 2aa010a1e75292e49a24f3f71bb9cddb, type: 3}
      propertyPath: m_LocalPosition.z
      value: -0.000000037252903
      objectReference: {fileID: 0}
    - target: {fileID: 4143700205523432, guid: 2aa010a1e75292e49a24f3f71bb9cddb, type: 3}
      propertyPath: m_LocalScale.x
      value: 0.99999976
      objectReference: {fileID: 0}
    m_RemovedComponents: []
  m_SourcePrefab: {fileID: 100100000, guid: 2aa010a1e75292e49a24f3f71bb9cddb, type: 3}
--- !u!4 &5835991349093692082 stripped
Transform:
  m_CorrespondingSourceObject: {fileID: 4542260197562760, guid: 2aa010a1e75292e49a24f3f71bb9cddb,
    type: 3}
  m_PrefabInstance: {fileID: 5831519537802439482}
  m_PrefabAsset: {fileID: 0}
--- !u!114 &5869653838652478396 stripped
MonoBehaviour:
  m_CorrespondingSourceObject: {fileID: 114994683550464134, guid: 2aa010a1e75292e49a24f3f71bb9cddb,
    type: 3}
  m_PrefabInstance: {fileID: 5831519537802439482}
  m_PrefabAsset: {fileID: 0}
  m_GameObject: {fileID: 0}
  m_Enabled: 1
  m_EditorHideFlags: 0
  m_Script: {fileID: 11500000, guid: 9e0ed5922e911b343b8400997c95409c, type: 3}
  m_Name: 
  m_EditorClassIdentifier: 
--- !u!1001 &6263228123519681555
PrefabInstance:
  m_ObjectHideFlags: 0
  serializedVersion: 2
  m_Modification:
    m_TransformParent: {fileID: 4554978340012998}
    m_Modifications:
    - target: {fileID: 1404367628755344, guid: 2276723046d707c4f94d431ceb80ab92, type: 3}
      propertyPath: m_Name
      value: LoPoly Rigged Hand Right
      objectReference: {fileID: 0}
    - target: {fileID: 4430945870454064, guid: 2276723046d707c4f94d431ceb80ab92, type: 3}
      propertyPath: m_LocalPosition.x
      value: 0
      objectReference: {fileID: 0}
    - target: {fileID: 4430945870454064, guid: 2276723046d707c4f94d431ceb80ab92, type: 3}
      propertyPath: m_LocalPosition.y
      value: 0
      objectReference: {fileID: 0}
    - target: {fileID: 4430945870454064, guid: 2276723046d707c4f94d431ceb80ab92, type: 3}
      propertyPath: m_LocalPosition.z
      value: 0
      objectReference: {fileID: 0}
    - target: {fileID: 4430945870454064, guid: 2276723046d707c4f94d431ceb80ab92, type: 3}
      propertyPath: m_LocalRotation.x
      value: -0
      objectReference: {fileID: 0}
    - target: {fileID: 4430945870454064, guid: 2276723046d707c4f94d431ceb80ab92, type: 3}
      propertyPath: m_LocalRotation.y
      value: -0
      objectReference: {fileID: 0}
    - target: {fileID: 4430945870454064, guid: 2276723046d707c4f94d431ceb80ab92, type: 3}
      propertyPath: m_LocalRotation.z
      value: -0
      objectReference: {fileID: 0}
    - target: {fileID: 4430945870454064, guid: 2276723046d707c4f94d431ceb80ab92, type: 3}
      propertyPath: m_LocalRotation.w
      value: 1
      objectReference: {fileID: 0}
    - target: {fileID: 4430945870454064, guid: 2276723046d707c4f94d431ceb80ab92, type: 3}
      propertyPath: m_RootOrder
      value: 1
      objectReference: {fileID: 0}
    - target: {fileID: 4430945870454064, guid: 2276723046d707c4f94d431ceb80ab92, type: 3}
      propertyPath: m_LocalEulerAnglesHint.x
      value: 0
      objectReference: {fileID: 0}
    - target: {fileID: 4430945870454064, guid: 2276723046d707c4f94d431ceb80ab92, type: 3}
      propertyPath: m_LocalEulerAnglesHint.y
      value: 0
      objectReference: {fileID: 0}
    - target: {fileID: 4430945870454064, guid: 2276723046d707c4f94d431ceb80ab92, type: 3}
      propertyPath: m_LocalEulerAnglesHint.z
      value: 0
      objectReference: {fileID: 0}
    - target: {fileID: 114391401882691968, guid: 2276723046d707c4f94d431ceb80ab92,
        type: 3}
      propertyPath: scaleLastFingerBone
      value: 1
      objectReference: {fileID: 0}
    - target: {fileID: 114599956679201074, guid: 2276723046d707c4f94d431ceb80ab92,
        type: 3}
      propertyPath: scaleLastFingerBone
      value: 1
      objectReference: {fileID: 0}
    - target: {fileID: 114793224122224908, guid: 2276723046d707c4f94d431ceb80ab92,
        type: 3}
      propertyPath: scaleLastFingerBone
      value: 1
      objectReference: {fileID: 0}
    - target: {fileID: 114113427333625670, guid: 2276723046d707c4f94d431ceb80ab92,
        type: 3}
      propertyPath: scaleLastFingerBone
      value: 1
      objectReference: {fileID: 0}
    - target: {fileID: 114565555105106300, guid: 2276723046d707c4f94d431ceb80ab92,
        type: 3}
      propertyPath: scaleLastFingerBone
      value: 1
      objectReference: {fileID: 0}
    - target: {fileID: 4627682728503200, guid: 2276723046d707c4f94d431ceb80ab92, type: 3}
      propertyPath: m_LocalRotation.x
      value: 0.14715023
      objectReference: {fileID: 0}
    - target: {fileID: 4627682728503200, guid: 2276723046d707c4f94d431ceb80ab92, type: 3}
      propertyPath: m_LocalRotation.y
      value: -0.029150411
      objectReference: {fileID: 0}
    - target: {fileID: 4627682728503200, guid: 2276723046d707c4f94d431ceb80ab92, type: 3}
      propertyPath: m_LocalRotation.z
      value: 0.31549877
      objectReference: {fileID: 0}
    - target: {fileID: 4627682728503200, guid: 2276723046d707c4f94d431ceb80ab92, type: 3}
      propertyPath: m_LocalRotation.w
      value: 0.93699396
      objectReference: {fileID: 0}
    - target: {fileID: 4627682728503200, guid: 2276723046d707c4f94d431ceb80ab92, type: 3}
      propertyPath: m_LocalPosition.x
      value: -0.19967404
      objectReference: {fileID: 0}
    - target: {fileID: 4627682728503200, guid: 2276723046d707c4f94d431ceb80ab92, type: 3}
      propertyPath: m_LocalPosition.y
      value: 0.3516451
      objectReference: {fileID: 0}
    - target: {fileID: 4627682728503200, guid: 2276723046d707c4f94d431ceb80ab92, type: 3}
      propertyPath: m_LocalPosition.z
      value: 0.20746502
      objectReference: {fileID: 0}
    - target: {fileID: 4895935397532050, guid: 2276723046d707c4f94d431ceb80ab92, type: 3}
      propertyPath: m_LocalRotation.x
      value: -0.0062662503
      objectReference: {fileID: 0}
    - target: {fileID: 4895935397532050, guid: 2276723046d707c4f94d431ceb80ab92, type: 3}
      propertyPath: m_LocalRotation.y
      value: 0.084017135
      objectReference: {fileID: 0}
    - target: {fileID: 4895935397532050, guid: 2276723046d707c4f94d431ceb80ab92, type: 3}
      propertyPath: m_LocalRotation.z
      value: 0.07411184
      objectReference: {fileID: 0}
    - target: {fileID: 4895935397532050, guid: 2276723046d707c4f94d431ceb80ab92, type: 3}
      propertyPath: m_LocalRotation.w
      value: -0.99368477
      objectReference: {fileID: 0}
    - target: {fileID: 4895935397532050, guid: 2276723046d707c4f94d431ceb80ab92, type: 3}
      propertyPath: m_LocalPosition.x
      value: 0.0067393202
      objectReference: {fileID: 0}
    - target: {fileID: 4895935397532050, guid: 2276723046d707c4f94d431ceb80ab92, type: 3}
      propertyPath: m_LocalPosition.y
      value: 0.008104915
      objectReference: {fileID: 0}
    - target: {fileID: 4895935397532050, guid: 2276723046d707c4f94d431ceb80ab92, type: 3}
      propertyPath: m_LocalPosition.z
      value: 0.018928442
      objectReference: {fileID: 0}
    - target: {fileID: 4116356619471150, guid: 2276723046d707c4f94d431ceb80ab92, type: 3}
      propertyPath: m_LocalRotation.z
      value: -4.6566118e-10
      objectReference: {fileID: 0}
    - target: {fileID: 4116356619471150, guid: 2276723046d707c4f94d431ceb80ab92, type: 3}
      propertyPath: m_LocalPosition.x
      value: 0.06812005
      objectReference: {fileID: 0}
    - target: {fileID: 4116356619471150, guid: 2276723046d707c4f94d431ceb80ab92, type: 3}
      propertyPath: m_LocalPosition.y
      value: 0.000000056665158
      objectReference: {fileID: 0}
    - target: {fileID: 4116356619471150, guid: 2276723046d707c4f94d431ceb80ab92, type: 3}
      propertyPath: m_LocalPosition.z
      value: -0.0000000047293724
      objectReference: {fileID: 0}
    - target: {fileID: 4544795542177852, guid: 2276723046d707c4f94d431ceb80ab92, type: 3}
      propertyPath: m_LocalPosition.x
      value: 0.039779976
      objectReference: {fileID: 0}
    - target: {fileID: 4544795542177852, guid: 2276723046d707c4f94d431ceb80ab92, type: 3}
      propertyPath: m_LocalPosition.y
      value: -0.0000000095381125
      objectReference: {fileID: 0}
    - target: {fileID: 4544795542177852, guid: 2276723046d707c4f94d431ceb80ab92, type: 3}
      propertyPath: m_LocalPosition.z
      value: 0.000000018815626
      objectReference: {fileID: 0}
    - target: {fileID: 4222071105232520, guid: 2276723046d707c4f94d431ceb80ab92, type: 3}
      propertyPath: m_LocalPosition.x
      value: 0.022379994
      objectReference: {fileID: 0}
    - target: {fileID: 4222071105232520, guid: 2276723046d707c4f94d431ceb80ab92, type: 3}
      propertyPath: m_LocalPosition.y
      value: -0.000000016277301
      objectReference: {fileID: 0}
    - target: {fileID: 4222071105232520, guid: 2276723046d707c4f94d431ceb80ab92, type: 3}
      propertyPath: m_LocalPosition.z
      value: -0.000000044557964
      objectReference: {fileID: 0}
    - target: {fileID: 4222071105232520, guid: 2276723046d707c4f94d431ceb80ab92, type: 3}
      propertyPath: m_LocalScale.x
      value: 1.0000011
      objectReference: {fileID: 0}
    - target: {fileID: 4125451489810824, guid: 2276723046d707c4f94d431ceb80ab92, type: 3}
      propertyPath: m_LocalRotation.x
      value: 0.073994935
      objectReference: {fileID: 0}
    - target: {fileID: 4125451489810824, guid: 2276723046d707c4f94d431ceb80ab92, type: 3}
      propertyPath: m_LocalRotation.y
      value: 0.00924228
      objectReference: {fileID: 0}
    - target: {fileID: 4125451489810824, guid: 2276723046d707c4f94d431ceb80ab92, type: 3}
      propertyPath: m_LocalPosition.x
      value: 0.009395263
      objectReference: {fileID: 0}
    - target: {fileID: 4125451489810824, guid: 2276723046d707c4f94d431ceb80ab92, type: 3}
      propertyPath: m_LocalPosition.y
      value: 0.009582768
      objectReference: {fileID: 0}
    - target: {fileID: 4125451489810824, guid: 2276723046d707c4f94d431ceb80ab92, type: 3}
      propertyPath: m_LocalPosition.z
      value: 0.007939791
      objectReference: {fileID: 0}
    - target: {fileID: 4356326262500756, guid: 2276723046d707c4f94d431ceb80ab92, type: 3}
      propertyPath: m_LocalRotation.y
      value: 9.3132235e-10
      objectReference: {fileID: 0}
    - target: {fileID: 4356326262500756, guid: 2276723046d707c4f94d431ceb80ab92, type: 3}
      propertyPath: m_LocalRotation.z
      value: -6.402841e-10
      objectReference: {fileID: 0}
    - target: {fileID: 4356326262500756, guid: 2276723046d707c4f94d431ceb80ab92, type: 3}
      propertyPath: m_LocalPosition.x
      value: 0.064600006
      objectReference: {fileID: 0}
    - target: {fileID: 4356326262500756, guid: 2276723046d707c4f94d431ceb80ab92, type: 3}
      propertyPath: m_LocalPosition.y
      value: -0.000000009284122
      objectReference: {fileID: 0}
    - target: {fileID: 4356326262500756, guid: 2276723046d707c4f94d431ceb80ab92, type: 3}
      propertyPath: m_LocalPosition.z
      value: 0.000000031781383
      objectReference: {fileID: 0}
    - target: {fileID: 4800436088954352, guid: 2276723046d707c4f94d431ceb80ab92, type: 3}
      propertyPath: m_LocalPosition.x
      value: 0.04463003
      objectReference: {fileID: 0}
    - target: {fileID: 4800436088954352, guid: 2276723046d707c4f94d431ceb80ab92, type: 3}
      propertyPath: m_LocalPosition.y
      value: 0.000000028491595
      objectReference: {fileID: 0}
    - target: {fileID: 4800436088954352, guid: 2276723046d707c4f94d431ceb80ab92, type: 3}
      propertyPath: m_LocalPosition.z
      value: -0.000000003525745
      objectReference: {fileID: 0}
    - target: {fileID: 4958922228817942, guid: 2276723046d707c4f94d431ceb80ab92, type: 3}
      propertyPath: m_LocalPosition.x
      value: 0.026330002
      objectReference: {fileID: 0}
    - target: {fileID: 4958922228817942, guid: 2276723046d707c4f94d431ceb80ab92, type: 3}
      propertyPath: m_LocalPosition.y
      value: -0.000000052644218
      objectReference: {fileID: 0}
    - target: {fileID: 4958922228817942, guid: 2276723046d707c4f94d431ceb80ab92, type: 3}
      propertyPath: m_LocalPosition.z
      value: 0.000000036836283
      objectReference: {fileID: 0}
    - target: {fileID: 4958922228817942, guid: 2276723046d707c4f94d431ceb80ab92, type: 3}
      propertyPath: m_LocalScale.x
      value: 1.0000006
      objectReference: {fileID: 0}
    - target: {fileID: 4564650654462602, guid: 2276723046d707c4f94d431ceb80ab92, type: 3}
      propertyPath: m_LocalRotation.y
      value: -0.13843815
      objectReference: {fileID: 0}
    - target: {fileID: 4564650654462602, guid: 2276723046d707c4f94d431ceb80ab92, type: 3}
      propertyPath: m_LocalRotation.z
      value: 0.029145611
      objectReference: {fileID: 0}
    - target: {fileID: 4564650654462602, guid: 2276723046d707c4f94d431ceb80ab92, type: 3}
      propertyPath: m_LocalPosition.x
      value: 0.008187871
      objectReference: {fileID: 0}
    - target: {fileID: 4564650654462602, guid: 2276723046d707c4f94d431ceb80ab92, type: 3}
      propertyPath: m_LocalPosition.y
      value: 0.001683115
      objectReference: {fileID: 0}
    - target: {fileID: 4564650654462602, guid: 2276723046d707c4f94d431ceb80ab92, type: 3}
      propertyPath: m_LocalPosition.z
      value: -0.014355981
      objectReference: {fileID: 0}
    - target: {fileID: 4531893592447476, guid: 2276723046d707c4f94d431ceb80ab92, type: 3}
      propertyPath: m_LocalRotation.x
      value: -0.000000014901158
      objectReference: {fileID: 0}
    - target: {fileID: 4531893592447476, guid: 2276723046d707c4f94d431ceb80ab92, type: 3}
      propertyPath: m_LocalRotation.z
      value: -0.0000000037252894
      objectReference: {fileID: 0}
    - target: {fileID: 4531893592447476, guid: 2276723046d707c4f94d431ceb80ab92, type: 3}
      propertyPath: m_LocalPosition.y
      value: 0.000000003259629
      objectReference: {fileID: 0}
    - target: {fileID: 4531893592447476, guid: 2276723046d707c4f94d431ceb80ab92, type: 3}
      propertyPath: m_LocalPosition.z
      value: 0.000000029453076
      objectReference: {fileID: 0}
    - target: {fileID: 4595006835456676, guid: 2276723046d707c4f94d431ceb80ab92, type: 3}
      propertyPath: m_LocalPosition.x
      value: 0.032739997
      objectReference: {fileID: 0}
    - target: {fileID: 4595006835456676, guid: 2276723046d707c4f94d431ceb80ab92, type: 3}
      propertyPath: m_LocalPosition.y
      value: -0.000000013260245
      objectReference: {fileID: 0}
    - target: {fileID: 4595006835456676, guid: 2276723046d707c4f94d431ceb80ab92, type: 3}
      propertyPath: m_LocalPosition.z
      value: -0.000000014551915
      objectReference: {fileID: 0}
    - target: {fileID: 4149354895858466, guid: 2276723046d707c4f94d431ceb80ab92, type: 3}
      propertyPath: m_LocalPosition.x
      value: 0.018109977
      objectReference: {fileID: 0}
    - target: {fileID: 4149354895858466, guid: 2276723046d707c4f94d431ceb80ab92, type: 3}
      propertyPath: m_LocalPosition.y
      value: -0.000000041774587
      objectReference: {fileID: 0}
    - target: {fileID: 4149354895858466, guid: 2276723046d707c4f94d431ceb80ab92, type: 3}
      propertyPath: m_LocalPosition.z
      value: 0.000000034226105
      objectReference: {fileID: 0}
    - target: {fileID: 4149354895858466, guid: 2276723046d707c4f94d431ceb80ab92, type: 3}
      propertyPath: m_LocalScale.x
      value: 0.9999999
      objectReference: {fileID: 0}
    - target: {fileID: 4138807105493540, guid: 2276723046d707c4f94d431ceb80ab92, type: 3}
      propertyPath: m_LocalRotation.x
      value: 0.104890704
      objectReference: {fileID: 0}
    - target: {fileID: 4138807105493540, guid: 2276723046d707c4f94d431ceb80ab92, type: 3}
      propertyPath: m_LocalRotation.y
      value: -0.068455204
      objectReference: {fileID: 0}
    - target: {fileID: 4138807105493540, guid: 2276723046d707c4f94d431ceb80ab92, type: 3}
      propertyPath: m_LocalRotation.z
      value: 0.06767922
      objectReference: {fileID: 0}
    - target: {fileID: 4138807105493540, guid: 2276723046d707c4f94d431ceb80ab92, type: 3}
      propertyPath: m_LocalPosition.x
      value: 0.010354039
      objectReference: {fileID: 0}
    - target: {fileID: 4138807105493540, guid: 2276723046d707c4f94d431ceb80ab92, type: 3}
      propertyPath: m_LocalPosition.y
      value: 0.008603739
      objectReference: {fileID: 0}
    - target: {fileID: 4138807105493540, guid: 2276723046d707c4f94d431ceb80ab92, type: 3}
      propertyPath: m_LocalPosition.z
      value: -0.0033526418
      objectReference: {fileID: 0}
    - target: {fileID: 4743576770914512, guid: 2276723046d707c4f94d431ceb80ab92, type: 3}
      propertyPath: m_LocalRotation.z
      value: 0.0000000037252899
      objectReference: {fileID: 0}
    - target: {fileID: 4743576770914512, guid: 2276723046d707c4f94d431ceb80ab92, type: 3}
      propertyPath: m_LocalPosition.x
      value: 0.05799999
      objectReference: {fileID: 0}
    - target: {fileID: 4743576770914512, guid: 2276723046d707c4f94d431ceb80ab92, type: 3}
      propertyPath: m_LocalPosition.y
      value: -0.000000056345016
      objectReference: {fileID: 0}
    - target: {fileID: 4743576770914512, guid: 2276723046d707c4f94d431ceb80ab92, type: 3}
      propertyPath: m_LocalPosition.z
      value: 0.000000007799827
      objectReference: {fileID: 0}
    - target: {fileID: 4389870053191570, guid: 2276723046d707c4f94d431ceb80ab92, type: 3}
      propertyPath: m_LocalPosition.x
      value: 0.041370034
      objectReference: {fileID: 0}
    - target: {fileID: 4389870053191570, guid: 2276723046d707c4f94d431ceb80ab92, type: 3}
      propertyPath: m_LocalPosition.y
      value: 0.000000026234463
      objectReference: {fileID: 0}
    - target: {fileID: 4389870053191570, guid: 2276723046d707c4f94d431ceb80ab92, type: 3}
      propertyPath: m_LocalPosition.z
      value: -0.000000016647391
      objectReference: {fileID: 0}
    - target: {fileID: 4845852643395992, guid: 2276723046d707c4f94d431ceb80ab92, type: 3}
      propertyPath: m_LocalPosition.x
      value: 0.025650002
      objectReference: {fileID: 0}
    - target: {fileID: 4845852643395992, guid: 2276723046d707c4f94d431ceb80ab92, type: 3}
      propertyPath: m_LocalPosition.y
      value: 0.0000000051639972
      objectReference: {fileID: 0}
    - target: {fileID: 4845852643395992, guid: 2276723046d707c4f94d431ceb80ab92, type: 3}
      propertyPath: m_LocalPosition.z
      value: 0.000000011175871
      objectReference: {fileID: 0}
    - target: {fileID: 4845852643395992, guid: 2276723046d707c4f94d431ceb80ab92, type: 3}
      propertyPath: m_LocalScale.x
      value: 0.9999999
      objectReference: {fileID: 0}
    - target: {fileID: 4111511758846408, guid: 2276723046d707c4f94d431ceb80ab92, type: 3}
      propertyPath: m_LocalRotation.y
      value: 0.3575552
      objectReference: {fileID: 0}
    - target: {fileID: 4111511758846408, guid: 2276723046d707c4f94d431ceb80ab92, type: 3}
      propertyPath: m_LocalRotation.z
      value: 0.019904831
      objectReference: {fileID: 0}
    - target: {fileID: 4111511758846408, guid: 2276723046d707c4f94d431ceb80ab92, type: 3}
      propertyPath: m_LocalPosition.x
      value: -0.0031685084
      objectReference: {fileID: 0}
    - target: {fileID: 4111511758846408, guid: 2276723046d707c4f94d431ceb80ab92, type: 3}
      propertyPath: m_LocalPosition.y
      value: -0.0100000035
      objectReference: {fileID: 0}
    - target: {fileID: 4111511758846408, guid: 2276723046d707c4f94d431ceb80ab92, type: 3}
      propertyPath: m_LocalPosition.z
      value: 0.026396364
      objectReference: {fileID: 0}
    - target: {fileID: 4606666689288932, guid: 2276723046d707c4f94d431ceb80ab92, type: 3}
      propertyPath: m_LocalRotation.x
      value: -0
      objectReference: {fileID: 0}
    - target: {fileID: 4606666689288932, guid: 2276723046d707c4f94d431ceb80ab92, type: 3}
      propertyPath: m_LocalRotation.y
      value: -0
      objectReference: {fileID: 0}
    - target: {fileID: 4606666689288932, guid: 2276723046d707c4f94d431ceb80ab92, type: 3}
      propertyPath: m_LocalRotation.z
      value: -0
      objectReference: {fileID: 0}
    - target: {fileID: 4606666689288932, guid: 2276723046d707c4f94d431ceb80ab92, type: 3}
      propertyPath: m_LocalPosition.x
      value: 0.046220027
      objectReference: {fileID: 0}
    - target: {fileID: 4606666689288932, guid: 2276723046d707c4f94d431ceb80ab92, type: 3}
      propertyPath: m_LocalPosition.y
      value: -0.000000035390258
      objectReference: {fileID: 0}
    - target: {fileID: 4606666689288932, guid: 2276723046d707c4f94d431ceb80ab92, type: 3}
      propertyPath: m_LocalPosition.z
      value: -0.000000008381903
      objectReference: {fileID: 0}
    - target: {fileID: 4409171998759784, guid: 2276723046d707c4f94d431ceb80ab92, type: 3}
      propertyPath: m_LocalPosition.x
      value: 0.031569995
      objectReference: {fileID: 0}
    - target: {fileID: 4409171998759784, guid: 2276723046d707c4f94d431ceb80ab92, type: 3}
      propertyPath: m_LocalPosition.y
      value: 0.000000027939677
      objectReference: {fileID: 0}
    - target: {fileID: 4409171998759784, guid: 2276723046d707c4f94d431ceb80ab92, type: 3}
      propertyPath: m_LocalPosition.z
      value: 0.00000006239861
      objectReference: {fileID: 0}
    - target: {fileID: 4409171998759784, guid: 2276723046d707c4f94d431ceb80ab92, type: 3}
      propertyPath: m_LocalScale.x
      value: 0.99999976
      objectReference: {fileID: 0}
    m_RemovedComponents: []
  m_SourcePrefab: {fileID: 100100000, guid: 2276723046d707c4f94d431ceb80ab92, type: 3}
--- !u!4 &6261350523962661155 stripped
Transform:
  m_CorrespondingSourceObject: {fileID: 4430945870454064, guid: 2276723046d707c4f94d431ceb80ab92,
    type: 3}
  m_PrefabInstance: {fileID: 6263228123519681555}
  m_PrefabAsset: {fileID: 0}
--- !u!114 &6304641166273696177 stripped
MonoBehaviour:
  m_CorrespondingSourceObject: {fileID: 114245269363414434, guid: 2276723046d707c4f94d431ceb80ab92,
    type: 3}
  m_PrefabInstance: {fileID: 6263228123519681555}
  m_PrefabAsset: {fileID: 0}
  m_GameObject: {fileID: 0}
  m_Enabled: 1
  m_EditorHideFlags: 0
  m_Script: {fileID: 11500000, guid: 9e0ed5922e911b343b8400997c95409c, type: 3}
  m_Name: 
  m_EditorClassIdentifier: 
